…
    ## New names:
    ## • `` -> `...14`
    ## • `` -> `...15`
    ## • `` -> `...16`
    ## • `` -> `...17`
    ## • `` -> `...18`
    ## • `` -> `...19`

``` r
# are vial numbers unique?
adult_coll %>%
  filter(!is.na(AGE)) 
```

    ## # A tibble: 417 × 19
    ##    Region  Year   Vial LENGTH WEIGHT   SEX   AGE START_LATITUDE START_LONGITUDE
    ##    <chr>  <dbl>  <dbl>  <dbl>  <dbl> <dbl> <dbl>          <dbl>           <dbl>
    ##  1 GOA     2017 307699    300    342     2     6           59.3           -147.
    ##  2 GOA     2017 310698    280    272     2     6           59.3           -147.
    ##  3 GOA     2017 313697    320    458     2     8           59.3           -147.
    ##  4 GOA     2017 316696    380    696     2    13           59.3           -147.
    ##  5 GOA     2017 319695    290    336     2     7           59.3           -147.
    ##  6 GOA     2017 322694    380    684     2    12           59.3           -147.
    ##  7 GOA     2017 325693    360    618     2    12           59.3           -147.
    ##  8 GOA     2017 328692    350    598     2     8           59.3           -147.
    ##  9 GOA     2017 331691    400    768     2    11           59.3           -147.
    ## 10 GOA     2017 334690    420    978     2    29           59.3           -147.
    ## # ℹ 407 more rows
    ## # ℹ 10 more variables: GEAR_TEMPERATURE <dbl>, SURFACE_TEMPERATURE <dbl>,
    ## #   BOTTOM_DEPTH <dbl>, Notes <chr>, ...14 <chr>, ...15 <chr>, ...16 <dbl>,
    ## #   ...17 <chr>, ...18 <chr>, ...19 <chr>
…
